<define-tag pagetitle>DSA-4345-1 samba</define-tag>
<define-tag report_date>2018-11-27</define-tag>
<define-tag secrefs>CVE-2018-14629 CVE-2018-16841 CVE-2018-16851</define-tag>
<define-tag packages>samba</define-tag>
<define-tag isvulnerable>yes</define-tag>
<define-tag fixed>yes</define-tag>
<define-tag fixed-section>no</define-tag>

#use wml::debian::security



</dl>
