<define-tag pagetitle>DSA-4826-1 nodejs</define-tag>
<define-tag report_date>2021-1-06</define-tag>
<define-tag secrefs>CVE-2020-8265 CVE-2020-8287</define-tag>
<define-tag packages>nodejs</define-tag>
<define-tag isvulnerable>yes</define-tag>
<define-tag fixed>yes</define-tag>
<define-tag fixed-section>no</define-tag>

#use wml::debian::security



</dl>
