<define-tag pagetitle>DSA-4727-1 tomcat9</define-tag>
<define-tag report_date>2020-7-17</define-tag>
<define-tag secrefs>CVE-2020-9484 CVE-2020-11996 CVE-2020-13934 CVE-2020-13935</define-tag>
<define-tag packages>tomcat9</define-tag>
<define-tag isvulnerable>yes</define-tag>
<define-tag fixed>yes</define-tag>
<define-tag fixed-section>no</define-tag>

#use wml::debian::security



</dl>
