<define-tag pagetitle>DSA-4601-1 ldm</define-tag>
<define-tag report_date>2020-1-09</define-tag>
<define-tag secrefs>CVE-2019-20373</define-tag>
<define-tag packages>ldm</define-tag>
<define-tag isvulnerable>yes</define-tag>
<define-tag fixed>yes</define-tag>
<define-tag fixed-section>no</define-tag>

#use wml::debian::security



</dl>
