<define-tag pagetitle>DLA-2634-1 openjdk-8</define-tag>
<define-tag report_date>2021-04-23</define-tag>
<define-tag secrefs>CVE-2021-2163</define-tag>
<define-tag packages>openjdk-8</define-tag>
<define-tag isvulnerable>yes</define-tag>
<define-tag fixed>yes</define-tag>
<define-tag fixed-section>no</define-tag>

#use wml::debian::security

