<define-tag pagetitle>DLA-2617-1 php-nette</define-tag>
<define-tag report_date>2021-4-04</define-tag>
<define-tag secrefs>CVE-2020-15227</define-tag>
<define-tag packages>php-nette</define-tag>
<define-tag isvulnerable>yes</define-tag>
<define-tag fixed>yes</define-tag>
<define-tag fixed-section>no</define-tag>

#use wml::debian::security

