<define-tag pagetitle>DLA-974-1 picocom</define-tag>
<define-tag report_date>2017-6-1</define-tag>
<define-tag secrefs>CVE-2015-9059 Bug##863671</define-tag>
<define-tag packages>picocom</define-tag>
<define-tag isvulnerable>yes</define-tag>
<define-tag fixed>yes</define-tag>
<define-tag fixed-section>no</define-tag>

#use wml::debian::security

