<define-tag pagetitle>DLA-1106-1 libgd2</define-tag>
<define-tag report_date>2017-9-22</define-tag>
<define-tag secrefs>CVE-2017-6362</define-tag>
<define-tag packages>libgd2</define-tag>
<define-tag isvulnerable>yes</define-tag>
<define-tag fixed>yes</define-tag>
<define-tag fixed-section>no</define-tag>

#use wml::debian::security

