<define-tag pagetitle>DLA-826-1 wireshark</define-tag>
<define-tag report_date>2017-2-17</define-tag>
<define-tag secrefs>CVE-2017-6014 Bug#855408</define-tag>
<define-tag packages>wireshark</define-tag>
<define-tag isvulnerable>yes</define-tag>
<define-tag fixed>yes</define-tag>
<define-tag fixed-section>no</define-tag>

#use wml::debian::security

