<define-tag pagetitle>DLA-2477-1 jupyter-notebook</define-tag>
<define-tag report_date>2020-12-02</define-tag>
<define-tag secrefs>CVE-2020-26215</define-tag>
<define-tag packages>jupyter-notebook</define-tag>
<define-tag isvulnerable>yes</define-tag>
<define-tag fixed>yes</define-tag>
<define-tag fixed-section>no</define-tag>

#use wml::debian::security
