<define-tag pagetitle>DLA-2425-1 openldap</define-tag>
<define-tag report_date>2020-11-01</define-tag>
<define-tag secrefs>none assigned yet</define-tag>
<define-tag packages>openldap</define-tag>
<define-tag isvulnerable>yes</define-tag>
<define-tag fixed>yes</define-tag>
<define-tag fixed-section>no</define-tag>

#use wml::debian::security

