<define-tag pagetitle>DLA-2426-1 junit4</define-tag>
<define-tag report_date>2020-11-01</define-tag>
<define-tag secrefs>CVE-2020-15250 Bug#972231</define-tag>
<define-tag packages>junit4</define-tag>
<define-tag isvulnerable>yes</define-tag>
<define-tag fixed>yes</define-tag>
<define-tag fixed-section>no</define-tag>

#use wml::debian::security

