<define-tag pagetitle>DLA-2181-1 shiro</define-tag>
<define-tag report_date>2020-04-19</define-tag>
<define-tag secrefs>CVE-2020-1957</define-tag>
<define-tag packages>shiro</define-tag>
<define-tag isvulnerable>yes</define-tag>
<define-tag fixed>yes</define-tag>
<define-tag fixed-section>no</define-tag>

#use wml::debian::security
