<define-tag pagetitle>DLA-1529-1 linux</define-tag>
<define-tag report_date>2018-10-4</define-tag>
<define-tag secrefs>CVE-2018-3620 CVE-2018-3639 CVE-2018-5391 CVE-2018-6554 CVE-2018-6555 CVE-2018-7755 CVE-2018-9363 CVE-2018-9516 CVE-2018-10021 CVE-2018-10323 CVE-2018-10876 CVE-2018-1087 CVE-2018-10878 CVE-2018-10879 CVE-2018-10880 CVE-2018-1088 CVE-2018-10882 CVE-2018-10883 CVE-2018-10902 CVE-2018-1309 CVE-2018-13094 CVE-2018-13405 CVE-2018-13406 CVE-2018-1460 CVE-2018-14617 CVE-2018-14633 CVE-2018-14634 CVE-2018-1467 CVE-2018-14734 CVE-2018-15572 CVE-2018-15594 CVE-2018-1627 CVE-2018-16658 CVE-2018-17182 Bug#898137</define-tag>
<define-tag packages>linux</define-tag>
<define-tag isvulnerable>yes</define-tag>
<define-tag fixed>yes</define-tag>
<define-tag fixed-section>no</define-tag>

#use wml::debian::security

