<define-tag pagetitle>DLA-1329-1 memcached</define-tag>
<define-tag report_date>2018-3-29</define-tag>
<define-tag secrefs>CVE-2018-1000127 Bug##894404</define-tag>
<define-tag packages>memcached</define-tag>
<define-tag isvulnerable>yes</define-tag>
<define-tag fixed>yes</define-tag>
<define-tag fixed-section>no</define-tag>

#use wml::debian::security

