<define-tag pagetitle>DLA-1486-1 spice</define-tag>
<define-tag report_date>2018-8-31</define-tag>
<define-tag secrefs>CVE-2018-10873 Bug##906315</define-tag>
<define-tag packages>spice</define-tag>
<define-tag isvulnerable>yes</define-tag>
<define-tag fixed>yes</define-tag>
<define-tag fixed-section>no</define-tag>

#use wml::debian::security

