<define-tag pagetitle>DLA-1598-1 ghostscript</define-tag>
<define-tag report_date>2018-11-28</define-tag>
<define-tag secrefs>CVE-2018-19409 CVE-2018-19475 CVE-2018-19476 CVE-2018-19477</define-tag>
<define-tag packages>ghostscript</define-tag>
<define-tag isvulnerable>yes</define-tag>
<define-tag fixed>yes</define-tag>
<define-tag fixed-section>no</define-tag>

#use wml::debian::security

