<define-tag pagetitle>DSA-4378-1 php-pear</define-tag>
<define-tag report_date>2019-1-30</define-tag>
<define-tag secrefs>CVE-2018-1000888 Bug#919147</define-tag>
<define-tag packages>php-pear</define-tag>
<define-tag isvulnerable>yes</define-tag>
<define-tag fixed>yes</define-tag>
<define-tag fixed-section>no</define-tag>

#use wml::debian::security



</dl>
