<define-tag pagetitle>DSA-4443-1 samba</define-tag>
<define-tag report_date>2019-5-14</define-tag>
<define-tag secrefs>CVE-2018-16860</define-tag>
<define-tag packages>samba</define-tag>
<define-tag isvulnerable>yes</define-tag>
<define-tag fixed>yes</define-tag>
<define-tag fixed-section>no</define-tag>

#use wml::debian::security



</dl>
