<define-tag pagetitle>DSA-4488-1 exim4</define-tag>
<define-tag report_date>2019-7-25</define-tag>
<define-tag secrefs>CVE-2019-13917</define-tag>
<define-tag packages>exim4</define-tag>
<define-tag isvulnerable>yes</define-tag>
<define-tag fixed>yes</define-tag>
<define-tag fixed-section>no</define-tag>

#use wml::debian::security



</dl>
