<define-tag pagetitle>DLA-2027-1 jruby</define-tag>
<define-tag report_date>2019-12-10</define-tag>
<define-tag secrefs>CVE-2017-17742 CVE-2019-16201 CVE-2019-16254 CVE-2019-16255</define-tag>
<define-tag packages>jruby</define-tag>
<define-tag isvulnerable>yes</define-tag>
<define-tag fixed>yes</define-tag>
<define-tag fixed-section>no</define-tag>

#use wml::debian::security

