<define-tag pagetitle>DLA-757-1 phpmyadmin</define-tag>
<define-tag report_date>2016-12-24</define-tag>
<define-tag secrefs>CVE-2016-4412 CVE-2016-6626 CVE-2016-9849 CVE-2016-9850 CVE-2016-9861 CVE-2016-9864 CVE-2016-9865</define-tag>
<define-tag packages>phpmyadmin</define-tag>
<define-tag isvulnerable>yes</define-tag>
<define-tag fixed>yes</define-tag>
<define-tag fixed-section>no</define-tag>

#use wml::debian::security

