<define-tag pagetitle>DLA-612-1 libtomcrypt</define-tag>
<define-tag report_date>2016-9-6</define-tag>
<define-tag secrefs>CVE-2016-6129</define-tag>
<define-tag packages>libtomcrypt</define-tag>
<define-tag isvulnerable>yes</define-tag>
<define-tag fixed>yes</define-tag>
<define-tag fixed-section>no</define-tag>

#use wml::debian::security

