<define-tag pagetitle>DLA-535-1 xerces-c</define-tag>
<define-tag report_date>2016-6-29</define-tag>
<define-tag secrefs>CVE-2016-4463 Bug#828990</define-tag>
<define-tag packages>xerces-c</define-tag>
<define-tag isvulnerable>yes</define-tag>
<define-tag fixed>yes</define-tag>
<define-tag fixed-section>no</define-tag>

#use wml::debian::security

