<define-tag pagetitle>DLA-554-1 libarchive</define-tag>
<define-tag report_date>2016-7-21</define-tag>
<define-tag secrefs>CVE-2015-8917 CVE-2015-8919 CVE-2015-8920 CVE-2015-8921 CVE-2015-8922 CVE-2015-8923 CVE-2015-8924 CVE-2015-8925 CVE-2015-8926 CVE-2015-8930 CVE-2015-8931 CVE-2015-8932 CVE-2015-8933 CVE-2015-8934 CVE-2016-4300 CVE-2016-4302 CVE-2016-4809 CVE-2016-5844</define-tag>
<define-tag packages>libarchive</define-tag>
<define-tag isvulnerable>yes</define-tag>
<define-tag fixed>yes</define-tag>
<define-tag fixed-section>no</define-tag>

#use wml::debian::security

